{
    "type": "FeatureCollection",
    "features": [
        {
            "type": "Feature",
            "geometry": {
                "type": "Point",
                "coordinates": [
                    32.84,
                    39.92
                ]
            },
            "properties": {
                "popupContent": "Ateneo la base",
                "title": "Ateneo la base",
                "description": "Descripción del ateneo la base tenemos un bar",
                "image": "./icones/xar.png"
            }
        },
        {
            "type": "Feature",
            "geometry": {
                "type": "Point",
                "coordinates": [
                    32.86,
                    39.90
                ]
            },
            "properties": {
                "popupContent": "Ateneo libertario",
                "title": "Ateneo libertario",
                "description": "Descripción del ateneo la base tenemos biblioteca",
                "image": "./icones/xar.png"
            }
        },
        {
            "type": "Feature",
            "geometry": {
                "type": "Point",
                "coordinates": [
                    32.70,
                    39.94
                ]
            },
            "properties": {
                "popupContent": "Biblioteca municipal",
                "title": "Biblioteca municipal",
                "description": "Descripción de la biblioteca tenemos una biblioteca",
                "image": "./icones/xar.png"
            }
        }
            ]
}
